EESchema Schematic File Version 4
EELAYER 30 0
EELAYER END
$Descr A4 11693 8268
encoding utf-8
Sheet 1 1
Title ""
Date ""
Rev ""
Comp ""
Comment1 ""
Comment2 ""
Comment3 ""
Comment4 ""
$EndDescr
$Comp
L Interface_UART:MAX485E U1
U 1 1 60C6199F
P 3550 1600
F 0 "U1" H 3550 2281 50  0000 C CNN
F 1 "MAX485E" H 3550 2190 50  0000 C CNN
F 2 "" H 3550 900 50  0001 C CNN
F 3 "https://datasheets.maximintegrated.com/en/ds/MAX1487E-MAX491E.pdf" H 3550 1650 50  0001 C CNN
	1    3550 1600
	1    0    0    -1  
$EndComp
$Comp
L Interface_UART:MAX485E U2
U 1 1 60C66131
P 5300 1600
F 0 "U2" H 5300 2281 50  0000 C CNN
F 1 "MAX485E" H 5300 2190 50  0000 C CNN
F 2 "" H 5300 900 50  0001 C CNN
F 3 "https://datasheets.maximintegrated.com/en/ds/MAX1487E-MAX491E.pdf" H 5300 1650 50  0001 C CNN
	1    5300 1600
	1    0    0    -1  
$EndComp
Wire Wire Line
	6250 1800 5700 1800
Wire Wire Line
	6200 1500 5700 1500
Wire Wire Line
	4300 1800 3950 1800
$Comp
L power:+9V #PWR0103
U 1 1 60C772B5
P 1700 1650
F 0 "#PWR0103" H 1700 1500 50  0001 C CNN
F 1 "+9V" H 1715 1823 50  0000 C CNN
F 2 "" H 1700 1650 50  0001 C CNN
F 3 "" H 1700 1650 50  0001 C CNN
	1    1700 1650
	1    0    0    -1  
$EndComp
Wire Wire Line
	1700 1650 1700 1850
$Comp
L power:Earth #PWR0104
U 1 1 60C77F46
P 1900 3950
F 0 "#PWR0104" H 1900 3700 50  0001 C CNN
F 1 "Earth" H 1900 3800 50  0001 C CNN
F 2 "" H 1900 3950 50  0001 C CNN
F 3 "~" H 1900 3950 50  0001 C CNN
	1    1900 3950
	1    0    0    -1  
$EndComp
Wire Wire Line
	1900 3850 1900 3950
$Comp
L power:+5V #PWR0105
U 1 1 60C79797
P 2000 1650
F 0 "#PWR0105" H 2000 1500 50  0001 C CNN
F 1 "+5V" H 2015 1823 50  0000 C CNN
F 2 "" H 2000 1650 50  0001 C CNN
F 3 "" H 2000 1650 50  0001 C CNN
	1    2000 1650
	1    0    0    -1  
$EndComp
Wire Wire Line
	2000 1650 2000 1850
$Comp
L power:Earth #PWR0106
U 1 1 60C7A2FD
P 5300 2200
F 0 "#PWR0106" H 5300 1950 50  0001 C CNN
F 1 "Earth" H 5300 2050 50  0001 C CNN
F 2 "" H 5300 2200 50  0001 C CNN
F 3 "~" H 5300 2200 50  0001 C CNN
	1    5300 2200
	1    0    0    -1  
$EndComp
$Comp
L power:Earth #PWR0107
U 1 1 60C7A876
P 3550 2200
F 0 "#PWR0107" H 3550 1950 50  0001 C CNN
F 1 "Earth" H 3550 2050 50  0001 C CNN
F 2 "" H 3550 2200 50  0001 C CNN
F 3 "~" H 3550 2200 50  0001 C CNN
	1    3550 2200
	1    0    0    -1  
$EndComp
Wire Wire Line
	5300 1100 5600 1100
Wire Wire Line
	5600 1100 5600 1000
$Comp
L power:+5V #PWR0108
U 1 1 60C7BB25
P 5600 1000
F 0 "#PWR0108" H 5600 850 50  0001 C CNN
F 1 "+5V" H 5615 1173 50  0000 C CNN
F 2 "" H 5600 1000 50  0001 C CNN
F 3 "" H 5600 1000 50  0001 C CNN
	1    5600 1000
	1    0    0    -1  
$EndComp
Wire Wire Line
	3550 1100 3900 1100
$Comp
L Device:R R1
U 1 1 60C7D39E
P 3000 1500
F 0 "R1" V 2793 1500 50  0000 C CNN
F 1 "100" V 2884 1500 50  0000 C CNN
F 2 "" V 2930 1500 50  0001 C CNN
F 3 "~" H 3000 1500 50  0001 C CNN
	1    3000 1500
	0    1    1    0   
$EndComp
Wire Wire Line
	3150 1600 2850 1600
Wire Wire Line
	2850 1600 2850 1550
$Comp
L power:Earth #PWR0110
U 1 1 60C7E363
P 2750 1550
F 0 "#PWR0110" H 2750 1300 50  0001 C CNN
F 1 "Earth" H 2750 1400 50  0001 C CNN
F 2 "" H 2750 1550 50  0001 C CNN
F 3 "~" H 2750 1550 50  0001 C CNN
	1    2750 1550
	1    0    0    -1  
$EndComp
Connection ~ 2850 1550
Wire Wire Line
	2850 1550 2850 1500
Wire Wire Line
	2750 1550 2850 1550
$Comp
L power:+5V #PWR0111
U 1 1 60C80245
P 3050 1700
F 0 "#PWR0111" H 3050 1550 50  0001 C CNN
F 1 "+5V" V 3065 1828 50  0000 L CNN
F 2 "" H 3050 1700 50  0001 C CNN
F 3 "" H 3050 1700 50  0001 C CNN
	1    3050 1700
	0    -1   -1   0   
$EndComp
Wire Wire Line
	3150 1700 3050 1700
Wire Wire Line
	3150 1800 1100 1800
Wire Wire Line
	1100 1800 1100 2450
Wire Wire Line
	1100 2450 1300 2450
$Comp
L power:Earth #PWR0112
U 1 1 60C83B60
P 4750 1700
F 0 "#PWR0112" H 4750 1450 50  0001 C CNN
F 1 "Earth" H 4750 1550 50  0001 C CNN
F 2 "" H 4750 1700 50  0001 C CNN
F 3 "~" H 4750 1700 50  0001 C CNN
	1    4750 1700
	1    0    0    -1  
$EndComp
Wire Wire Line
	4900 1700 4850 1700
Wire Wire Line
	4900 1600 4850 1600
Wire Wire Line
	4850 1600 4850 1700
Connection ~ 4850 1700
Wire Wire Line
	4850 1700 4750 1700
Wire Wire Line
	4900 1500 4550 1500
Wire Wire Line
	4550 1500 4550 600 
Wire Wire Line
	4550 600  1050 600 
Wire Wire Line
	1050 600  1050 2550
Wire Wire Line
	1050 2550 1300 2550
$Comp
L MCU_Module:Arduino_Nano_v3.x A?
U 1 1 60C88280
P 1800 2850
F 0 "A?" H 1800 1761 50  0000 C CNN
F 1 "Arduino_Nano_v3.x" H 1800 1670 50  0000 C CNN
F 2 "Module:Arduino_Nano" H 1800 2850 50  0001 C CIN
F 3 "http://www.mouser.com/pdfdocs/Gravitech_Arduino_Nano3_0.pdf" H 1800 2850 50  0001 C CNN
	1    1800 2850
	1    0    0    -1  
$EndComp
$Comp
L Connector:RJ45 J1
U 1 1 60C71D01
P 7350 3500
F 0 "J1" H 7020 3504 50  0000 R CNN
F 1 "RJ45" H 7020 3595 50  0000 R CNN
F 2 "" V 7350 3525 50  0001 C CNN
F 3 "~" V 7350 3525 50  0001 C CNN
	1    7350 3500
	-1   0    0    1   
$EndComp
Wire Wire Line
	6950 3200 6750 3200
Wire Wire Line
	6750 3200 6750 3500
Wire Wire Line
	6750 3500 6950 3500
Wire Wire Line
	6950 3300 6800 3300
Wire Wire Line
	6800 3300 6800 3600
Wire Wire Line
	6800 3600 6950 3600
Wire Wire Line
	6750 3200 6600 3200
Wire Wire Line
	6600 3200 6600 3250
Connection ~ 6750 3200
$Comp
L power:Earth #PWR?
U 1 1 60C7B9C5
P 6600 3250
F 0 "#PWR?" H 6600 3000 50  0001 C CNN
F 1 "Earth" H 6600 3100 50  0001 C CNN
F 2 "" H 6600 3250 50  0001 C CNN
F 3 "~" H 6600 3250 50  0001 C CNN
	1    6600 3250
	1    0    0    -1  
$EndComp
Wire Wire Line
	6800 3600 6600 3600
Wire Wire Line
	6600 3600 6600 3500
Connection ~ 6800 3600
$Comp
L power:+9V #PWR?
U 1 1 60C7C927
P 6600 3500
F 0 "#PWR?" H 6600 3350 50  0001 C CNN
F 1 "+9V" H 6450 3550 50  0000 C CNN
F 2 "" H 6600 3500 50  0001 C CNN
F 3 "" H 6600 3500 50  0001 C CNN
	1    6600 3500
	1    0    0    -1  
$EndComp
$Comp
L power:+5V #PWR?
U 1 1 60C82E76
P 3900 1100
F 0 "#PWR?" H 3900 950 50  0001 C CNN
F 1 "+5V" H 3915 1273 50  0000 C CNN
F 2 "" H 3900 1100 50  0001 C CNN
F 3 "" H 3900 1100 50  0001 C CNN
	1    3900 1100
	1    0    0    -1  
$EndComp
Wire Wire Line
	6950 3700 4400 3700
Wire Wire Line
	4400 3700 4400 1500
Wire Wire Line
	3950 1500 4400 1500
Wire Wire Line
	4300 1800 4300 3400
Wire Wire Line
	4300 3400 6950 3400
Wire Wire Line
	6950 3800 6250 3800
Wire Wire Line
	6250 3800 6250 1800
Wire Wire Line
	6200 1500 6200 3900
Wire Wire Line
	6200 3900 6950 3900
$EndSCHEMATC
